traffic_light/traffic_light.sim/sim_1/behav/xsim/simulate.log
Vivado Simulator 2018.2
Time resolution is 1 ps
Time: 0, switch0: 0, switch1: 0, btn0: 0, btn1: 0, btn2: 0, seg1: xxxxxxx, seg2: xxxxxxx, led1: xxx, led2: xxx
Time: 5000, switch0: 0, switch1: 0, btn0: 0, btn1: 0, btn2: 0, seg1: 1111111, seg2: 1111111, led1: 000, led2: 000
Time: 10000, switch0: 1, switch1: 0, btn0: 0, btn1: 0, btn2: 0, seg1: 1111111, seg2: 1111111, led1: 000, led2: 000
Time: 15000, switch0: 1, switch1: 0, btn0: 0, btn1: 0, btn2: 0, seg1: 0010010, seg2: 1111001, led1: 001, led2: 010
Time: 175000, switch0: 1, switch1: 0, btn0: 0, btn1: 0, btn2: 0, seg1: 0011001, seg2: 1111001, led1: 001, led2: 010
Time: 205000, switch0: 1, switch1: 0, btn0: 0, btn1: 1, btn2: 0, seg1: 0011001, seg2: 1111001, led1: 001, led2: 010
Time: 255000, switch0: 1, switch1: 0, btn0: 0, btn1: 0, btn2: 0, seg1: 0011001, seg2: 1111001, led1: 001, led2: 010
Time: 275000, switch0: 1, switch1: 0, btn0: 1, btn1: 0, btn2: 0, seg1: 0011001, seg2: 1111001, led1: 001, led2: 010
Time: 285000, switch0: 1, switch1: 0, btn0: 0, btn1: 0, btn2: 0, seg1: 0011001, seg2: 1111001, led1: 001, led2: 010
Time: 325000, switch0: 1, switch1: 0, btn0: 0, btn1: 0, btn2: 0, seg1: 0110000, seg2: 1111001, led1: 001, led2: 010
Time: 335000, switch0: 1, switch1: 0, btn0: 0, btn1: 0, btn2: 1, seg1: 1111111, seg2: 1111111, led1: 011, led2: 011
Time: 375000, switch0: 1, switch1: 0, btn0: 0, btn1: 0, btn2: 1, seg1: 1111111, seg2: 1111111, led1: 000, led2: 000
Time: 415000, switch0: 1, switch1: 0, btn0: 0, btn1: 0, btn2: 1, seg1: 1111111, seg2: 1111111, led1: 011, led2: 011
Time: 435000, switch0: 1, switch1: 1, btn0: 0, btn1: 0, btn2: 1, seg1: 1111111, seg2: 1111111, led1: 000, led2: 000
Time: 455000, switch0: 1, switch1: 1, btn0: 0, btn1: 0, btn2: 1, seg1: 1111111, seg2: 1111111, led1: 011, led2: 011
Time: 475000, switch0: 1, switch1: 1, btn0: 0, btn1: 0, btn2: 1, seg1: 1111111, seg2: 1111111, led1: 000, led2: 000
Time: 495000, switch0: 1, switch1: 1, btn0: 0, btn1: 0, btn2: 1, seg1: 1111111, seg2: 1111111, led1: 011, led2: 011
Time: 515000, switch0: 1, switch1: 1, btn0: 0, btn1: 0, btn2: 1, seg1: 1111111, seg2: 1111111, led1: 000, led2: 000
Time: 535000, switch0: 1, switch1: 0, btn0: 0, btn1: 0, btn2: 1, seg1: 1111111, seg2: 1111111, led1: 000, led2: 000
Time: 575000, switch0: 1, switch1: 0, btn0: 0, btn1: 0, btn2: 1, seg1: 1111111, seg2: 1111111, led1: 011, led2: 011
Time: 585000, switch0: 1, switch1: 0, btn0: 0, btn1: 0, btn2: 0, seg1: 1111111, seg2: 1111111, led1: 011, led2: 011
Time: 595000, switch0: 1, switch1: 0, btn0: 0, btn1: 0, btn2: 0, seg1: 0010010, seg2: 1111001, led1: 001, led2: 010
Time: 765000, switch0: 1, switch1: 0, btn0: 0, btn1: 0, btn2: 0, seg1: 0011001, seg2: 1111001, led1: 001, led2: 010
Time: 845000, switch0: 1, switch1: 0, btn0: 0, btn1: 0, btn2: 0, seg1: 0110000, seg2: 1111001, led1: 001, led2: 010
Time: 925000, switch0: 1, switch1: 0, btn0: 0, btn1: 0, btn2: 0, seg1: 0100100, seg2: 1111001, led1: 001, led2: 010
Time: 1005000, switch0: 1, switch1: 0, btn0: 0, btn1: 0, btn2: 0, seg1: 1111001, seg2: 1111001, led1: 001, led2: 010
Time: 1085000, switch0: 1, switch1: 0, btn0: 0, btn1: 0, btn2: 0, seg1: 1000000, seg2: 1111001, led1: 001, led2: 010
Time: 1165000, switch0: 1, switch1: 0, btn0: 0, btn1: 0, btn2: 0, seg1: 0010000, seg2: 1000000, led1: 001, led2: 010
Time: 1245000, switch0: 1, switch1: 0, btn0: 0, btn1: 0, btn2: 0, seg1: 0000000, seg2: 1000000, led1: 001, led2: 010
Time: 1325000, switch0: 1, switch1: 0, btn0: 0, btn1: 0, btn2: 0, seg1: 1111000, seg2: 1000000, led1: 001, led2: 010
Time: 1405000, switch0: 1, switch1: 0, btn0: 0, btn1: 0, btn2: 0, seg1: 0000010, seg2: 1000000, led1: 001, led2: 010
Time: 1485000, switch0: 1, switch1: 0, btn0: 0, btn1: 0, btn2: 0, seg1: 0010010, seg2: 1000000, led1: 001, led2: 011
Time: 1565000, switch0: 1, switch1: 0, btn0: 0, btn1: 0, btn2: 0, seg1: 0011001, seg2: 1000000, led1: 001, led2: 011
Time: 1645000, switch0: 1, switch1: 0, btn0: 0, btn1: 0, btn2: 0, seg1: 0110000, seg2: 1000000, led1: 001, led2: 011
Time: 1725000, switch0: 1, switch1: 0, btn0: 0, btn1: 0, btn2: 0, seg1: 0100100, seg2: 1000000, led1: 001, led2: 011
Time: 1805000, switch0: 1, switch1: 0, btn0: 0, btn1: 0, btn2: 0, seg1: 1111001, seg2: 1000000, led1: 001, led2: 011
Time: 1885000, switch0: 1, switch1: 0, btn0: 0, btn1: 0, btn2: 0, seg1: 1000000, seg2: 1111001, led1: 010, led2: 001
Time: 2045000, switch0: 1, switch1: 0, btn0: 0, btn1: 0, btn2: 0, seg1: 0010000, seg2: 1000000, led1: 010, led2: 001
Time: 2125000, switch0: 1, switch1: 0, btn0: 0, btn1: 0, btn2: 0, seg1: 0000000, seg2: 1000000, led1: 010, led2: 001
Time: 2205000, switch0: 1, switch1: 0, btn0: 0, btn1: 0, btn2: 0, seg1: 1111000, seg2: 1000000, led1: 010, led2: 001
Time: 2285000, switch0: 1, switch1: 0, btn0: 0, btn1: 0, btn2: 0, seg1: 0000010, seg2: 1000000, led1: 010, led2: 001
Time: 2365000, switch0: 1, switch1: 0, btn0: 0, btn1: 0, btn2: 0, seg1: 0010010, seg2: 1000000, led1: 010, led2: 001
Time: 2445000, switch0: 1, switch1: 0, btn0: 0, btn1: 0, btn2: 0, seg1: 0011001, seg2: 1000000, led1: 010, led2: 001
Time: 2525000, switch0: 1, switch1: 0, btn0: 0, btn1: 0, btn2: 0, seg1: 0110000, seg2: 1000000, led1: 010, led2: 001
Time: 2605000, switch0: 1, switch1: 0, btn0: 0, btn1: 0, btn2: 0, seg1: 0100100, seg2: 1000000, led1: 010, led2: 001
Time: 2685000, switch0: 1, switch1: 0, btn0: 0, btn1: 0, btn2: 0, seg1: 1111001, seg2: 1000000, led1: 010, led2: 001
Time: 2765000, switch0: 1, switch1: 0, btn0: 0, btn1: 0, btn2: 0, seg1: 0010010, seg2: 1000000, led1: 011, led2: 001
Time: 2925000, switch0: 1, switch1: 0, btn0: 0, btn1: 0, btn2: 0, seg1: 0011001, seg2: 1000000, led1: 011, led2: 001
Time: 3005000, switch0: 1, switch1: 0, btn0: 0, btn1: 0, btn2: 0, seg1: 0110000, seg2: 1000000, led1: 011, led2: 001
Time: 3085000, switch0: 1, switch1: 0, btn0: 0, btn1: 0, btn2: 0, seg1: 0100100, seg2: 1000000, led1: 011, led2: 001
Time: 3165000, switch0: 1, switch1: 0, btn0: 0, btn1: 0, btn2: 0, seg1: 1111001, seg2: 1000000, led1: 011, led2: 001
Time: 3245000, switch0: 1, switch1: 0, btn0: 0, btn1: 0, btn2: 0, seg1: 0010010, seg2: 1111001, led1: 001, led2: 010
Time: 3405000, switch0: 1, switch1: 0, btn0: 0, btn1: 0, btn2: 0, seg1: 0011001, seg2: 1111001, led1: 001, led2: 010
Time: 3485000, switch0: 1, switch1: 0, btn0: 0, btn1: 0, btn2: 0, seg1: 0110000, seg2: 1111001, led1: 001, led2: 010
Time: 3565000, switch0: 1, switch1: 0, btn0: 0, btn1: 0, btn2: 0, seg1: 0100100, seg2: 1111001, led1: 001, led2: 010
Time: 3645000, switch0: 1, switch1: 0, btn0: 0, btn1: 0, btn2: 0, seg1: 1111001, seg2: 1111001, led1: 001, led2: 010
Time: 3725000, switch0: 1, switch1: 0, btn0: 0, btn1: 0, btn2: 0, seg1: 1000000, seg2: 1111001, led1: 001, led2: 010
Time: 3805000, switch0: 1, switch1: 0, btn0: 0, btn1: 0, btn2: 0, seg1: 0010000, seg2: 1000000, led1: 001, led2: 010
Time: 3885000, switch0: 1, switch1: 0, btn0: 0, btn1: 0, btn2: 0, seg1: 0000000, seg2: 1000000, led1: 001, led2: 010
Time: 3965000, switch0: 1, switch1: 0, btn0: 0, btn1: 0, btn2: 0, seg1: 1111000, seg2: 1000000, led1: 001, led2: 010
Time: 4045000, switch0: 1, switch1: 0, btn0: 0, btn1: 0, btn2: 0, seg1: 0000010, seg2: 1000000, led1: 001, led2: 010
Time: 4125000, switch0: 1, switch1: 0, btn0: 0, btn1: 0, btn2: 0, seg1: 0010010, seg2: 1000000, led1: 001, led2: 011
Time: 4205000, switch0: 1, switch1: 0, btn0: 0, btn1: 0, btn2: 0, seg1: 0011001, seg2: 1000000, led1: 001, led2: 011
Time: 4285000, switch0: 1, switch1: 0, btn0: 0, btn1: 0, btn2: 0, seg1: 0110000, seg2: 1000000, led1: 001, led2: 011
Time: 4365000, switch0: 1, switch1: 0, btn0: 0, btn1: 0, btn2: 0, seg1: 0100100, seg2: 1000000, led1: 001, led2: 011
Time: 4445000, switch0: 1, switch1: 0, btn0: 0, btn1: 0, btn2: 0, seg1: 1111001, seg2: 1000000, led1: 001, led2: 011
Time: 4525000, switch0: 1, switch1: 0, btn0: 0, btn1: 0, btn2: 0, seg1: 1000000, seg2: 1111001, led1: 010, led2: 001
Time: 4685000, switch0: 1, switch1: 0, btn0: 0, btn1: 0, btn2: 0, seg1: 0010000, seg2: 1000000, led1: 010, led2: 001
Time: 4765000, switch0: 1, switch1: 0, btn0: 0, btn1: 0, btn2: 0, seg1: 0000000, seg2: 1000000, led1: 010, led2: 001
Time: 4845000, switch0: 1, switch1: 0, btn0: 0, btn1: 0, btn2: 0, seg1: 1111000, seg2: 1000000, led1: 010, led2: 001
Time: 4925000, switch0: 1, switch1: 0, btn0: 0, btn1: 0, btn2: 0, seg1: 0000010, seg2: 1000000, led1: 010, led2: 001
Time: 5005000, switch0: 1, switch1: 0, btn0: 0, btn1: 0, btn2: 0, seg1: 0010010, seg2: 1000000, led1: 010, led2: 001
Time: 5085000, switch0: 1, switch1: 0, btn0: 0, btn1: 0, btn2: 0, seg1: 0011001, seg2: 1000000, led1: 010, led2: 001
Time: 5165000, switch0: 1, switch1: 0, btn0: 0, btn1: 0, btn2: 0, seg1: 0110000, seg2: 1000000, led1: 010, led2: 001
Time: 5245000, switch0: 1, switch1: 0, btn0: 0, btn1: 0, btn2: 0, seg1: 0100100, seg2: 1000000, led1: 010, led2: 001
Time: 5325000, switch0: 1, switch1: 0, btn0: 0, btn1: 0, btn2: 0, seg1: 1111001, seg2: 1000000, led1: 010, led2: 001
Time: 5405000, switch0: 1, switch1: 0, btn0: 0, btn1: 0, btn2: 0, seg1: 0010010, seg2: 1000000, led1: 011, led2: 001
Time: 5565000, switch0: 1, switch1: 0, btn0: 0, btn1: 0, btn2: 0, seg1: 0011001, seg2: 1000000, led1: 011, led2: 001
Time: 5645000, switch0: 1, switch1: 0, btn0: 0, btn1: 0, btn2: 0, seg1: 0110000, seg2: 1000000, led1: 011, led2: 001
Time: 5725000, switch0: 1, switch1: 0, btn0: 0, btn1: 0, btn2: 0, seg1: 0100100, seg2: 1000000, led1: 011, led2: 001
Time: 5805000, switch0: 1, switch1: 0, btn0: 0, btn1: 0, btn2: 0, seg1: 1111001, seg2: 1000000, led1: 011, led2: 001
Time: 5885000, switch0: 1, switch1: 0, btn0: 0, btn1: 0, btn2: 0, seg1: 0010010, seg2: 1111001, led1: 001, led2: 010
Time: 6045000, switch0: 1, switch1: 0, btn0: 0, btn1: 0, btn2: 0, seg1: 0011001, seg2: 1111001, led1: 001, led2: 010
Time: 6125000, switch0: 1, switch1: 0, btn0: 0, btn1: 0, btn2: 0, seg1: 0110000, seg2: 1111001, led1: 001, led2: 010
Time: 6205000, switch0: 1, switch1: 0, btn0: 0, btn1: 0, btn2: 0, seg1: 0100100, seg2: 1111001, led1: 001, led2: 010
Time: 6285000, switch0: 1, switch1: 0, btn0: 0, btn1: 0, btn2: 0, seg1: 1111001, seg2: 1111001, led1: 001, led2: 010
Time: 6365000, switch0: 1, switch1: 0, btn0: 0, btn1: 0, btn2: 0, seg1: 1000000, seg2: 1111001, led1: 001, led2: 010
Time: 6445000, switch0: 1, switch1: 0, btn0: 0, btn1: 0, btn2: 0, seg1: 0010000, seg2: 1000000, led1: 001, led2: 010
Time: 6525000, switch0: 1, switch1: 0, btn0: 0, btn1: 0, btn2: 0, seg1: 0000000, seg2: 1000000, led1: 001, led2: 010
Time: 6605000, switch0: 1, switch1: 0, btn0: 0, btn1: 0, btn2: 0, seg1: 1111000, seg2: 1000000, led1: 001, led2: 010
Time: 6685000, switch0: 1, switch1: 0, btn0: 0, btn1: 0, btn2: 0, seg1: 0000010, seg2: 1000000, led1: 001, led2: 010
Time: 6765000, switch0: 1, switch1: 0, btn0: 0, btn1: 0, btn2: 0, seg1: 0010010, seg2: 1000000, led1: 001, led2: 011
Time: 6845000, switch0: 1, switch1: 0, btn0: 0, btn1: 0, btn2: 0, seg1: 0011001, seg2: 1000000, led1: 001, led2: 011
Time: 6925000, switch0: 1, switch1: 0, btn0: 0, btn1: 0, btn2: 0, seg1: 0110000, seg2: 1000000, led1: 001, led2: 011
Time: 7005000, switch0: 1, switch1: 0, btn0: 0, btn1: 0, btn2: 0, seg1: 0100100, seg2: 1000000, led1: 001, led2: 011
Time: 7085000, switch0: 1, switch1: 0, btn0: 0, btn1: 0, btn2: 0, seg1: 1111001, seg2: 1000000, led1: 001, led2: 011
Time: 7165000, switch0: 1, switch1: 0, btn0: 0, btn1: 0, btn2: 0, seg1: 1000000, seg2: 1111001, led1: 010, led2: 001
Time: 7325000, switch0: 1, switch1: 0, btn0: 0, btn1: 0, btn2: 0, seg1: 0010000, seg2: 1000000, led1: 010, led2: 001
Time: 7405000, switch0: 1, switch1: 0, btn0: 0, btn1: 0, btn2: 0, seg1: 0000000, seg2: 1000000, led1: 010, led2: 001
Time: 7485000, switch0: 1, switch1: 0, btn0: 0, btn1: 0, btn2: 0, seg1: 1111000, seg2: 1000000, led1: 010, led2: 001
Time: 7565000, switch0: 1, switch1: 0, btn0: 0, btn1: 0, btn2: 0, seg1: 0000010, seg2: 1000000, led1: 010, led2: 001
Time: 7645000, switch0: 1, switch1: 0, btn0: 0, btn1: 0, btn2: 0, seg1: 0010010, seg2: 1000000, led1: 010, led2: 001
Time: 7725000, switch0: 1, switch1: 0, btn0: 0, btn1: 0, btn2: 0, seg1: 0011001, seg2: 1000000, led1: 010, led2: 001
Time: 7805000, switch0: 1, switch1: 0, btn0: 0, btn1: 0, btn2: 0, seg1: 0110000, seg2: 1000000, led1: 010, led2: 001
Time: 7885000, switch0: 1, switch1: 0, btn0: 0, btn1: 0, btn2: 0, seg1: 0100100, seg2: 1000000, led1: 010, led2: 001
Time: 7965000, switch0: 1, switch1: 0, btn0: 0, btn1: 0, btn2: 0, seg1: 1111001, seg2: 1000000, led1: 010, led2: 001
Time: 8045000, switch0: 1, switch1: 0, btn0: 0, btn1: 0, btn2: 0, seg1: 0010010, seg2: 1000000, led1: 011, led2: 001
Time: 8205000, switch0: 1, switch1: 0, btn0: 0, btn1: 0, btn2: 0, seg1: 0011001, seg2: 1000000, led1: 011, led2: 001
Time: 8285000, switch0: 1, switch1: 0, btn0: 0, btn1: 0, btn2: 0, seg1: 0110000, seg2: 1000000, led1: 011, led2: 001
Time: 8365000, switch0: 1, switch1: 0, btn0: 0, btn1: 0, btn2: 0, seg1: 0100100, seg2: 1000000, led1: 011, led2: 001
Time: 8445000, switch0: 1, switch1: 0, btn0: 0, btn1: 0, btn2: 0, seg1: 1111001, seg2: 1000000, led1: 011, led2: 001
Time: 8525000, switch0: 1, switch1: 0, btn0: 0, btn1: 0, btn2: 0, seg1: 0010010, seg2: 1111001, led1: 001, led2: 010
Time: 8685000, switch0: 1, switch1: 0, btn0: 0, btn1: 0, btn2: 0, seg1: 0011001, seg2: 1111001, led1: 001, led2: 010
Time: 8765000, switch0: 1, switch1: 0, btn0: 0, btn1: 0, btn2: 0, seg1: 0110000, seg2: 1111001, led1: 001, led2: 010
Time: 8845000, switch0: 1, switch1: 0, btn0: 0, btn1: 0, btn2: 0, seg1: 0100100, seg2: 1111001, led1: 001, led2: 010
Time: 8925000, switch0: 1, switch1: 0, btn0: 0, btn1: 0, btn2: 0, seg1: 1111001, seg2: 1111001, led1: 001, led2: 010
Time: 9005000, switch0: 1, switch1: 0, btn0: 0, btn1: 0, btn2: 0, seg1: 1000000, seg2: 1111001, led1: 001, led2: 010
Time: 9085000, switch0: 1, switch1: 0, btn0: 0, btn1: 0, btn2: 0, seg1: 0010000, seg2: 1000000, led1: 001, led2: 010
Time: 9165000, switch0: 1, switch1: 0, btn0: 0, btn1: 0, btn2: 0, seg1: 0000000, seg2: 1000000, led1: 001, led2: 010
Time: 9245000, switch0: 1, switch1: 0, btn0: 0, btn1: 0, btn2: 0, seg1: 1111000, seg2: 1000000, led1: 001, led2: 010
Time: 9325000, switch0: 1, switch1: 0, btn0: 0, btn1: 0, btn2: 0, seg1: 0000010, seg2: 1000000, led1: 001, led2: 010
Time: 9405000, switch0: 1, switch1: 0, btn0: 0, btn1: 0, btn2: 0, seg1: 0010010, seg2: 1000000, led1: 001, led2: 011
Time: 9485000, switch0: 1, switch1: 0, btn0: 0, btn1: 0, btn2: 0, seg1: 0011001, seg2: 1000000, led1: 001, led2: 011
Time: 9565000, switch0: 1, switch1: 0, btn0: 0, btn1: 0, btn2: 0, seg1: 0110000, seg2: 1000000, led1: 001, led2: 011
Time: 9645000, switch0: 1, switch1: 0, btn0: 0, btn1: 0, btn2: 0, seg1: 0100100, seg2: 1000000, led1: 001, led2: 011
Time: 9725000, switch0: 1, switch1: 0, btn0: 0, btn1: 0, btn2: 0, seg1: 1111001, seg2: 1000000, led1: 001, led2: 011
Time: 9805000, switch0: 1, switch1: 0, btn0: 0, btn1: 0, btn2: 0, seg1: 1000000, seg2: 1111001, led1: 010, led2: 001
Time: 9965000, switch0: 1, switch1: 0, btn0: 0, btn1: 0, btn2: 0, seg1: 0010000, seg2: 1000000, led1: 010, led2: 001
Time: 10045000, switch0: 1, switch1: 0, btn0: 0, btn1: 0, btn2: 0, seg1: 0000000, seg2: 1000000, led1: 010, led2: 001
Time: 10125000, switch0: 1, switch1: 0, btn0: 0, btn1: 0, btn2: 0, seg1: 1111000, seg2: 1000000, led1: 010, led2: 001
Time: 10205000, switch0: 1, switch1: 0, btn0: 0, btn1: 0, btn2: 0, seg1: 0000010, seg2: 1000000, led1: 010, led2: 001
Time: 10285000, switch0: 1, switch1: 0, btn0: 0, btn1: 0, btn2: 0, seg1: 0010010, seg2: 1000000, led1: 010, led2: 001
Time: 10365000, switch0: 1, switch1: 0, btn0: 0, btn1: 0, btn2: 0, seg1: 0011001, seg2: 1000000, led1: 010, led2: 001
Time: 10445000, switch0: 1, switch1: 0, btn0: 0, btn1: 0, btn2: 0, seg1: 0110000, seg2: 1000000, led1: 010, led2: 001
Time: 10525000, switch0: 1, switch1: 0, btn0: 0, btn1: 0, btn2: 0, seg1: 0100100, seg2: 1000000, led1: 010, led2: 001
Time: 10605000, switch0: 1, switch1: 0, btn0: 0, btn1: 0, btn2: 0, seg1: 1111001, seg2: 1000000, led1: 010, led2: 001
Time: 10685000, switch0: 1, switch1: 0, btn0: 0, btn1: 0, btn2: 0, seg1: 0010010, seg2: 1000000, led1: 011, led2: 001
Time: 10845000, switch0: 1, switch1: 0, btn0: 0, btn1: 0, btn2: 0, seg1: 0011001, seg2: 1000000, led1: 011, led2: 001
Time: 10925000, switch0: 1, switch1: 0, btn0: 0, btn1: 0, btn2: 0, seg1: 0110000, seg2: 1000000, led1: 011, led2: 001
Time: 11005000, switch0: 1, switch1: 0, btn0: 0, btn1: 0, btn2: 0, seg1: 0100100, seg2: 1000000, led1: 011, led2: 001
Time: 11085000, switch0: 1, switch1: 0, btn0: 0, btn1: 0, btn2: 0, seg1: 1111001, seg2: 1000000, led1: 011, led2: 001
Time: 11165000, switch0: 1, switch1: 0, btn0: 0, btn1: 0, btn2: 0, seg1: 0010010, seg2: 1111001, led1: 001, led2: 010
Time: 11325000, switch0: 1, switch1: 0, btn0: 0, btn1: 0, btn2: 0, seg1: 0011001, seg2: 1111001, led1: 001, led2: 010
Time: 11405000, switch0: 1, switch1: 0, btn0: 0, btn1: 0, btn2: 0, seg1: 0110000, seg2: 1111001, led1: 001, led2: 010
Time: 11485000, switch0: 1, switch1: 0, btn0: 0, btn1: 0, btn2: 0, seg1: 0100100, seg2: 1111001, led1: 001, led2: 010
Time: 11565000, switch0: 1, switch1: 0, btn0: 0, btn1: 0, btn2: 0, seg1: 1111001, seg2: 1111001, led1: 001, led2: 010
Time: 11645000, switch0: 1, switch1: 0, btn0: 0, btn1: 0, btn2: 0, seg1: 1000000, seg2: 1111001, led1: 001, led2: 010
Time: 11725000, switch0: 1, switch1: 0, btn0: 0, btn1: 0, btn2: 0, seg1: 0010000, seg2: 1000000, led1: 001, led2: 010
Time: 11805000, switch0: 1, switch1: 0, btn0: 0, btn1: 0, btn2: 0, seg1: 0000000, seg2: 1000000, led1: 001, led2: 010
Time: 11885000, switch0: 1, switch1: 0, btn0: 0, btn1: 0, btn2: 0, seg1: 1111000, seg2: 1000000, led1: 001, led2: 010
Time: 11965000, switch0: 1, switch1: 0, btn0: 0, btn1: 0, btn2: 0, seg1: 0000010, seg2: 1000000, led1: 001, led2: 010
Time: 12045000, switch0: 1, switch1: 0, btn0: 0, btn1: 0, btn2: 0, seg1: 0010010, seg2: 1000000, led1: 001, led2: 011
Time: 12125000, switch0: 1, switch1: 0, btn0: 0, btn1: 0, btn2: 0, seg1: 0011001, seg2: 1000000, led1: 001, led2: 011
Time: 12205000, switch0: 1, switch1: 0, btn0: 0, btn1: 0, btn2: 0, seg1: 0110000, seg2: 1000000, led1: 001, led2: 011
Time: 12285000, switch0: 1, switch1: 0, btn0: 0, btn1: 0, btn2: 0, seg1: 0100100, seg2: 1000000, led1: 001, led2: 011
Time: 12365000, switch0: 1, switch1: 0, btn0: 0, btn1: 0, btn2: 0, seg1: 1111001, seg2: 1000000, led1: 001, led2: 011
Time: 12445000, switch0: 1, switch1: 0, btn0: 0, btn1: 0, btn2: 0, seg1: 1000000, seg2: 1111001, led1: 010, led2: 001
Time: 12605000, switch0: 1, switch1: 0, btn0: 0, btn1: 0, btn2: 0, seg1: 0010000, seg2: 1000000, led1: 010, led2: 001
Time: 12685000, switch0: 1, switch1: 0, btn0: 0, btn1: 0, btn2: 0, seg1: 0000000, seg2: 1000000, led1: 010, led2: 001
Time: 12765000, switch0: 1, switch1: 0, btn0: 0, btn1: 0, btn2: 0, seg1: 1111000, seg2: 1000000, led1: 010, led2: 001
Time: 12845000, switch0: 1, switch1: 0, btn0: 0, btn1: 0, btn2: 0, seg1: 0000010, seg2: 1000000, led1: 010, led2: 001
Time: 12925000, switch0: 1, switch1: 0, btn0: 0, btn1: 0, btn2: 0, seg1: 0010010, seg2: 1000000, led1: 010, led2: 001
Time: 13005000, switch0: 1, switch1: 0, btn0: 0, btn1: 0, btn2: 0, seg1: 0011001, seg2: 1000000, led1: 010, led2: 001
Time: 13085000, switch0: 1, switch1: 0, btn0: 0, btn1: 0, btn2: 0, seg1: 0110000, seg2: 1000000, led1: 010, led2: 001
Time: 13165000, switch0: 1, switch1: 0, btn0: 0, btn1: 0, btn2: 0, seg1: 0100100, seg2: 1000000, led1: 010, led2: 001
Time: 13245000, switch0: 1, switch1: 0, btn0: 0, btn1: 0, btn2: 0, seg1: 1111001, seg2: 1000000, led1: 010, led2: 001
Time: 13325000, switch0: 1, switch1: 0, btn0: 0, btn1: 0, btn2: 0, seg1: 0010010, seg2: 1000000, led1: 011, led2: 001
Time: 13485000, switch0: 1, switch1: 0, btn0: 0, btn1: 0, btn2: 0, seg1: 0011001, seg2: 1000000, led1: 011, led2: 001
Time: 13565000, switch0: 1, switch1: 0, btn0: 0, btn1: 0, btn2: 0, seg1: 0110000, seg2: 1000000, led1: 011, led2: 001
Time: 13645000, switch0: 1, switch1: 0, btn0: 0, btn1: 0, btn2: 0, seg1: 0100100, seg2: 1000000, led1: 011, led2: 001
Time: 13725000, switch0: 1, switch1: 0, btn0: 0, btn1: 0, btn2: 0, seg1: 1111001, seg2: 1000000, led1: 011, led2: 001
Time: 13805000, switch0: 1, switch1: 0, btn0: 0, btn1: 0, btn2: 0, seg1: 0010010, seg2: 1111001, led1: 001, led2: 010
Time: 13965000, switch0: 1, switch1: 0, btn0: 0, btn1: 0, btn2: 0, seg1: 0011001, seg2: 1111001, led1: 001, led2: 010
Time: 14045000, switch0: 1, switch1: 0, btn0: 0, btn1: 0, btn2: 0, seg1: 0110000, seg2: 1111001, led1: 001, led2: 010
Time: 14125000, switch0: 1, switch1: 0, btn0: 0, btn1: 0, btn2: 0, seg1: 0100100, seg2: 1111001, led1: 001, led2: 010
Time: 14205000, switch0: 1, switch1: 0, btn0: 0, btn1: 0, btn2: 0, seg1: 1111001, seg2: 1111001, led1: 001, led2: 010
Time: 14285000, switch0: 1, switch1: 0, btn0: 0, btn1: 0, btn2: 0, seg1: 1000000, seg2: 1111001, led1: 001, led2: 010
Time: 14365000, switch0: 1, switch1: 0, btn0: 0, btn1: 0, btn2: 0, seg1: 0010000, seg2: 1000000, led1: 001, led2: 010
Time: 14445000, switch0: 1, switch1: 0, btn0: 0, btn1: 0, btn2: 0, seg1: 0000000, seg2: 1000000, led1: 001, led2: 010
Time: 14525000, switch0: 1, switch1: 0, btn0: 0, btn1: 0, btn2: 0, seg1: 1111000, seg2: 1000000, led1: 001, led2: 010
Time: 14605000, switch0: 1, switch1: 0, btn0: 0, btn1: 0, btn2: 0, seg1: 0000010, seg2: 1000000, led1: 001, led2: 010
Time: 14685000, switch0: 1, switch1: 0, btn0: 0, btn1: 0, btn2: 0, seg1: 0010010, seg2: 1000000, led1: 001, led2: 011
Time: 14765000, switch0: 1, switch1: 0, btn0: 0, btn1: 0, btn2: 0, seg1: 0011001, seg2: 1000000, led1: 001, led2: 011
Time: 14845000, switch0: 1, switch1: 0, btn0: 0, btn1: 0, btn2: 0, seg1: 0110000, seg2: 1000000, led1: 001, led2: 011
Time: 14925000, switch0: 1, switch1: 0, btn0: 0, btn1: 0, btn2: 0, seg1: 0100100, seg2: 1000000, led1: 001, led2: 011
Time: 15005000, switch0: 1, switch1: 0, btn0: 0, btn1: 0, btn2: 0, seg1: 1111001, seg2: 1000000, led1: 001, led2: 011
Time: 15085000, switch0: 1, switch1: 0, btn0: 0, btn1: 0, btn2: 0, seg1: 1000000, seg2: 1111001, led1: 010, led2: 001
Time: 15245000, switch0: 1, switch1: 0, btn0: 0, btn1: 0, btn2: 0, seg1: 0010000, seg2: 1000000, led1: 010, led2: 001
Time: 15325000, switch0: 1, switch1: 0, btn0: 0, btn1: 0, btn2: 0, seg1: 0000000, seg2: 1000000, led1: 010, led2: 001
Time: 15405000, switch0: 1, switch1: 0, btn0: 0, btn1: 0, btn2: 0, seg1: 1111000, seg2: 1000000, led1: 010, led2: 001
Time: 15485000, switch0: 1, switch1: 0, btn0: 0, btn1: 0, btn2: 0, seg1: 0000010, seg2: 1000000, led1: 010, led2: 001
Time: 15565000, switch0: 1, switch1: 0, btn0: 0, btn1: 0, btn2: 0, seg1: 0010010, seg2: 1000000, led1: 010, led2: 001
Time: 15645000, switch0: 1, switch1: 0, btn0: 0, btn1: 0, btn2: 0, seg1: 0011001, seg2: 1000000, led1: 010, led2: 001
Time: 15725000, switch0: 1, switch1: 0, btn0: 0, btn1: 0, btn2: 0, seg1: 0110000, seg2: 1000000, led1: 010, led2: 001
Time: 15805000, switch0: 1, switch1: 0, btn0: 0, btn1: 0, btn2: 0, seg1: 0100100, seg2: 1000000, led1: 010, led2: 001
Time: 15885000, switch0: 1, switch1: 0, btn0: 0, btn1: 0, btn2: 0, seg1: 1111001, seg2: 1000000, led1: 010, led2: 001
Time: 15965000, switch0: 1, switch1: 0, btn0: 0, btn1: 0, btn2: 0, seg1: 0010010, seg2: 1000000, led1: 011, led2: 001
Time: 16125000, switch0: 1, switch1: 0, btn0: 0, btn1: 0, btn2: 0, seg1: 0011001, seg2: 1000000, led1: 011, led2: 001
Time: 16205000, switch0: 1, switch1: 0, btn0: 0, btn1: 0, btn2: 0, seg1: 0110000, seg2: 1000000, led1: 011, led2: 001
Time: 16285000, switch0: 1, switch1: 0, btn0: 0, btn1: 0, btn2: 0, seg1: 0100100, seg2: 1000000, led1: 011, led2: 001
Time: 16365000, switch0: 1, switch1: 0, btn0: 0, btn1: 0, btn2: 0, seg1: 1111001, seg2: 1000000, led1: 011, led2: 001
Time: 16445000, switch0: 1, switch1: 0, btn0: 0, btn1: 0, btn2: 0, seg1: 0010010, seg2: 1111001, led1: 001, led2: 010
Time: 16605000, switch0: 1, switch1: 0, btn0: 0, btn1: 0, btn2: 0, seg1: 0011001, seg2: 1111001, led1: 001, led2: 010
Time: 16685000, switch0: 1, switch1: 0, btn0: 0, btn1: 0, btn2: 0, seg1: 0110000, seg2: 1111001, led1: 001, led2: 010
